1 10 20
100 200 125
201 210 89
900 1000 174
1 2000 182
5 6 9
1 2 2
10000 13000 268
500 600 137
526 894 179
7856 125 262
665 2315 183
45 89 116
12 548 144
563 154 144
60000 80000 351
560 789 171
45 56 113
784 896 179
124 156 122
89 91 93
23 56 113
652 745 171
231 512 144
489 120 144
516 684 145
2 654 145
12 56 113
78 32 116
55 78 116
221 899 179
158 458 144
78 122 119
10 12 15
56 63 108
78 89 111
125 256 128
30 40 107
96 69 116
458 459 129
20000 20001 168
6005 5006 236
7896 7897 40
4589 5692 236
50000 60000 340
4856 5693 236
125 569 144
458 165 144
4589 4256 215
10000 10002 180
125 5894 238
4587 125 238
11 13 15
1256 1257 40
123 456 144
7851 8956 252
55555 66666 335
1248 5233 238
558 458 142
785 1025 179
400 500 142
900 999 174
100 200 125
256 253 110
958 855 179
4562 4592 171
999999 999950 259
4586 4658 184
999998 999999 259
123 125 109
69 70 15
74 86 111
689 789 171
32 52 110
102 103 88
653 668 145
458 469 129
20000 20003 181
2020 2021 64
7856 4256 262
4589 5456 210
12 56 113
63 59 108
48 21 112
485 489 142
625 645 132
128 129 122
3658 3785 238
502 518 124
896 900 117
300000 300100 371
999 1000 112
21 20 8
42 63 113
71 89 116
95 23 116
1 5 8
2 6 9
2 9 20
1 15 20
1 999999 525
