1 10 20
100 200 125
201 210 89
900 1000 174
1000 1500 182
3000 5000 238
1 2 2
999998 999999 259
999990 999999 259
15 75 116
4012 89156 351
124 6489 262
200 201 27
12565 100000 351
81 90 111
1 44 112
99 999 179
1000 1234 182
12345 56789 340
99 123 114
8 5000 238
2000 4000 238
56 76 116
765 9000 262
10000 10040 211
450 9850 262
9089 13255 276
7986 98741 351
8949 12455 268
7 9 20
1 18 21
2 8 17
1 100000 351
6000 9000 262
800 90000 351
4002 5002 215
9124 51234 324
12045 15249 276
4 9 20
99 189 125
901 902 55
1534 5124 238
9013 52312 324
6142 13542 276
9089 78623 351
5000 7000 262
5001 7124 262
9342 25312 282
1111 11113 268
520 540 124
12 123 119
15 150 122
60 6123 238
125 689 145
124 253 128
8923 46235 324
6235 25323 282
2349 9083 262
8235 89234 351
99 102 26
11 1290 182
123 512 144
15234 19824 279
88 99 119
11 22 21
44 55 113
888 999 174
1245 78902 351
9087 12345 268
12 34 112
56 78 116
90 123 119
456 789 171
9876 54321 340
12459 76541 340
12589 98712 351
472 8124 262
513 872 179
500 503 111
512 1249 182
15384 98172 351
8973 12452 268
51 90 116
15 89 116
11 321 131
5612 8214 262
89128 99924 333
14 87 116
1234 6789 262
8917 15245 276
77 999 179
1534 9521 262
4219 9842 262
1245 1257 177
7298 51832 324
1325 7863 262
5329 8932 262
55 66 113
124 982 179
30 33 107
12 88 116
99 170 122
88 84 31
512 39 144
99999 88888 333
